[
{
    "model": "contractor.contractor",
    "pk": 1,
    "fields": {
        "primer_nombre": "David",
        "segundo_nombre": "Alejandro",
        "primer_apellido": "Rua",
        "segundo_apellido": "Herrera",
        "documento_identidad": 1504515645,
        "direccion": "calle 108 # 68a - 76",
        "telefono": 322254552
    }
},
{
    "model": "contractor.contractor",
    "pk": 2,
    "fields": {
        "primer_nombre": "Juan",
        "segundo_nombre": "Pablo",
        "primer_apellido": "Baena",
        "segundo_apellido": "Sanchez",
        "documento_identidad": 150455615645,
        "direccion": "calle 108 # 68a - 76",
        "telefono": 322254552
    }
}
]
